…
SeaTable bases have around twenty column types. harbouR maps every one
of them onto a predictable R type so the tibble you get back is
analysis-ready, not raw JSON. This vignette is the reference.

## The mapping table

The table below is derived from
[`hb_column_types()`](https://r-heller.github.io/harbouR/reference/hb_column_types.md)
so it cannot drift out of sync with the code:

``` r

library(harbouR)
hb_column_types()
#> # A tibble: 23 × 3
#>    seatable      r               notes                                   
#>    <chr>         <chr>           <chr>                                   
#>  1 text          character       free text                               
#>  2 long-text     character       markdown blob                           
#>  3 email         character       validated as email server-side          
#>  4 url           character       validated as URL server-side            
#>  5 auto-number   character       server-generated identifier             
#>  6 number        double          64-bit precision caveat applies         
#>  7 rate          integer         0..N stars                              
#>  8 checkbox      logical         TRUE/FALSE                              
#>  9 date          Date or POSIXct POSIXct when a time component is present
#> 10 single-select character       validated against options on write      
#> # ℹ 13 more rows
```
…
